%YAML 1.1
%TAG !u! tag:unity3d.com,2011:
--- !u!1 &100000
GameObject:
  m_ObjectHideFlags: 0
  m_PrefabParentObject: {fileID: 0}
  m_PrefabInternal: {fileID: 100100000}
  serializedVersion: 4
  m_Component:
  - 4: {fileID: 400000}
  - 114: {fileID: 11400000}
  m_Layer: 0
  m_Name: LaveGhostAnimation
  m_TagString: Untagged
  m_Icon: {fileID: 0}
  m_NavMeshLayer: 0
  m_StaticEditorFlags: 0
  m_IsActive: 0
--- !u!4 &400000
Transform:
  m_ObjectHideFlags: 1
  m_PrefabParentObject: {fileID: 0}
  m_PrefabInternal: {fileID: 100100000}
  m_GameObject: {fileID: 100000}
  m_LocalRotation: {x: 0, y: 0, z: 0, w: 1}
  m_LocalPosition: {x: 0, y: 0, z: 0}
  m_LocalScale: {x: 1, y: 1, z: 1}
  m_Children: []
  m_Father: {fileID: 0}
--- !u!114 &11400000
MonoBehaviour:
  m_ObjectHideFlags: 1
  m_PrefabParentObject: {fileID: 0}
  m_PrefabInternal: {fileID: 100100000}
  m_GameObject: {fileID: 100000}
  m_Enabled: 1
  m_EditorHideFlags: 0
  m_Script: {fileID: 11500000, guid: ecaffc43a5d2b1d47858e3fb687e7271, type: 3}
  m_Name: 
  m_EditorClassIdentifier: 
  clips:
  - name: Move
    frames:
    - spriteCollection: {fileID: 11400000, guid: 5910723f578804b7aa18b546c640b2b6,
        type: 2}
      spriteId: 637
      triggerEvent: 0
      eventInfo: 
      eventInt: 0
      eventFloat: 0
    - spriteCollection: {fileID: 11400000, guid: 5910723f578804b7aa18b546c640b2b6,
        type: 2}
      spriteId: 633
      triggerEvent: 0
      eventInfo: 
      eventInt: 0
      eventFloat: 0
    - spriteCollection: {fileID: 11400000, guid: 5910723f578804b7aa18b546c640b2b6,
        type: 2}
      spriteId: 639
      triggerEvent: 0
      eventInfo: 
      eventInt: 0
      eventFloat: 0
    - spriteCollection: {fileID: 11400000, guid: 5910723f578804b7aa18b546c640b2b6,
        type: 2}
      spriteId: 636
      triggerEvent: 0
      eventInfo: 
      eventInt: 0
      eventFloat: 0
    - spriteCollection: {fileID: 11400000, guid: 5910723f578804b7aa18b546c640b2b6,
        type: 2}
      spriteId: 634
      triggerEvent: 0
      eventInfo: 
      eventInt: 0
      eventFloat: 0
    - spriteCollection: {fileID: 11400000, guid: 5910723f578804b7aa18b546c640b2b6,
        type: 2}
      spriteId: 635
      triggerEvent: 0
      eventInfo: 
      eventInt: 0
      eventFloat: 0
    - spriteCollection: {fileID: 11400000, guid: 5910723f578804b7aa18b546c640b2b6,
        type: 2}
      spriteId: 640
      triggerEvent: 0
      eventInfo: 
      eventInt: 0
      eventFloat: 0
    - spriteCollection: {fileID: 11400000, guid: 5910723f578804b7aa18b546c640b2b6,
        type: 2}
      spriteId: 638
      triggerEvent: 0
      eventInfo: 
      eventInt: 0
      eventFloat: 0
    fps: 15
    loopStart: 0
    wrapMode: 0
--- !u!1001 &100100000
Prefab:
  m_ObjectHideFlags: 1
  serializedVersion: 2
  m_Modification:
    m_TransformParent: {fileID: 0}
    m_Modifications: []
    m_RemovedComponents: []
  m_ParentPrefab: {fileID: 0}
  m_RootGameObject: {fileID: 100000}
  m_IsPrefabParent: 1
  m_IsExploded: 1
